<?xml version="1.0" encoding="UTF-8" standalone="no"?>
<!-- Created with Inkscape (http://www.inkscape.org/) -->

<svg
   xmlns:dc="http://purl.org/dc/elements/1.1/"
   xmlns:cc="http://creativecommons.org/ns#"
   xmlns:rdf="http://www.w3.org/1999/02/22-rdf-syntax-ns#"
   xmlns:svg="http://www.w3.org/2000/svg"
   xmlns="http://www.w3.org/2000/svg"
   xmlns:sodipodi="http://sodipodi.sourceforge.net/DTD/sodipodi-0.dtd"
   xmlns:inkscape="http://www.inkscape.org/namespaces/inkscape"
   width="32"
   height="32"
   id="svg2985"
   version="1.1"
   inkscape:version="0.91 r13725"
   sodipodi:docname="ic_action_curve_add.svg">
  <sodipodi:namedview
     id="base"
     pagecolor="#ffffff"
     bordercolor="#666666"
     borderopacity="1.0"
     inkscape:pageopacity="0.0"
     inkscape:pageshadow="2"
     inkscape:zoom="11.313709"
     inkscape:cx="15.084195"
     inkscape:cy="12.059561"
     inkscape:current-layer="g3037"
     showgrid="true"
     inkscape:grid-bbox="true"
     inkscape:document-units="px"
     inkscape:window-width="1366"
     inkscape:window-height="682"
     inkscape:window-x="0"
     inkscape:window-y="33"
     inkscape:window-maximized="1"
     fit-margin-top="4"
     fit-margin-left="4"
     fit-margin-right="4"
     fit-margin-bottom="4" />
  <defs
     id="defs2987" />
  <metadata
     id="metadata2990">
    <rdf:RDF>
      <cc:Work
         rdf:about="">
        <dc:format>image/svg+xml</dc:format>
        <dc:type
           rdf:resource="http://purl.org/dc/dcmitype/StillImage" />
        <dc:title />
      </cc:Work>
    </rdf:RDF>
  </metadata>
  <g
     inkscape:groupmode="layer"
     inkscape:label="Layer 1"
     id="layer1"
     transform="translate(2.7110291e-8,16.000102)">
    <g
       id="g3010">
      <g
         transform="matrix(0.97919046,0,0,1.0968356,0.19603469,-1.1494735)"
         id="g2995">
        <g
           id="g3037"
           transform="translate(-0.00119081,0.91108216)">
          <path
             style="fill:none;fill-rule:evenodd;stroke:#2f3333;stroke-width:1.92985925;stroke-linecap:round;stroke-linejoin:miter;stroke-opacity:0.5411765;stroke-miterlimit:4;stroke-dasharray:none"
             d="M 4.7882284,3.2207452 C 15.150578,-18.657464 16.115672,24.722916 26.519951,2.596212"
             id="path4138"
             inkscape:connector-curvature="0"
             sodipodi:nodetypes="cc" />
          <path
             inkscape:connector-curvature="0"
             id="path3032"
             style="fill:none;stroke:#333333;stroke-width:2.37003851;stroke-linecap:square;stroke-linejoin:miter;stroke-miterlimit:0;stroke-dasharray:none;stroke-opacity:0.5411765;marker-start:none;marker-mid:none;marker-end:none"
             d="m 22.402364,-8.7205322 0,9.37051229 m -4.795512,-4.68522109 9.591024,0" />
        </g>
      </g>
    </g>
  </g>
</svg>
